{
  "page": 1,
  "per_page": 1,
  "photos": [
    {
      "id": 24390617,
      "width": 2848,
      "height": 4272,
      "url": "https://www.pexels.com/photo/cityscape-under-dramatic-sky-24390617/",
      "photographer": "Suheil Mohammed",
      "photographer_url": "https://www.pexels.com/@suheil-mohammed-1125026879",
      "photographer_id": 1125026879,
      "avg_color": "#987152",
      "src": {
        "original": "https://images.pexels.com/photos/24390617/pexels-photo-24390617.jpeg",
        "large2x": "https://images.pexels.com/photos/24390617/pexels-photo-24390617.jpeg?auto=compress&cs=tinysrgb&dpr=2&h=650&w=940",
        "large": "https://images.pexels.com/photos/24390617/pexels-photo-24390617.jpeg?auto=compress&cs=tinysrgb&h=650&w=940",
        "medium": "https://images.pexels.com/photos/24390617/pexels-photo-24390617.jpeg?auto=compress&cs=tinysrgb&h=350",
        "small": "https://images.pexels.com/photos/24390617/pexels-photo-24390617.jpeg?auto=compress&cs=tinysrgb&h=130",
        "portrait": "https://images.pexels.com/photos/24390617/pexels-photo-24390617.jpeg?auto=compress&cs=tinysrgb&fit=crop&h=1200&w=800",
        "landscape": "https://images.pexels.com/photos/24390617/pexels-photo-24390617.jpeg?auto=compress&cs=tinysrgb&fit=crop&h=627&w=1200",
        "tiny": "https://images.pexels.com/photos/24390617/pexels-photo-24390617.jpeg?auto=compress&cs=tinysrgb&dpr=1&fit=crop&h=200&w=280"
      },
      "liked": false,
      "alt": "Stunning Nairobi skyline with modern skyscrapers and a dramatic sky at sunset."
    }
  ],
  "total_results": 8000,
  "next_page": "https://api.pexels.com/v1/v1/search?page=2&per_page=1&query=Sonia+Vihar+city+skyline"
}